%YAML 1.1
%TAG !u! tag:unity3d.com,2011:
--- !u!114 &11400000
MonoBehaviour:
  m_ObjectHideFlags: 0
  m_CorrespondingSourceObject: {fileID: 0}
  m_PrefabInstance: {fileID: 0}
  m_PrefabAsset: {fileID: 0}
  m_GameObject: {fileID: 0}
  m_Enabled: 1
  m_EditorHideFlags: 0
  m_Script: {fileID: 11500000, guid: 1719fb84c28ac034d8fa44e1c23db9fb, type: 3}
  m_Name: Refuel-Station
  m_EditorClassIdentifier: 
  prefab: {fileID: 1335240306202141291, guid: ffae793e04ae76243a2f17e697560ab1, type: 3}
  quantity: 2
